<?xml version="1.0" encoding="UTF-8" standalone="no"?>
<svg
   xmlns:dc="http://purl.org/dc/elements/1.1/"
   xmlns:cc="http://creativecommons.org/ns#"
   xmlns:rdf="http://www.w3.org/1999/02/22-rdf-syntax-ns#"
   xmlns:svg="http://www.w3.org/2000/svg"
   xmlns="http://www.w3.org/2000/svg"
   xmlns:sodipodi="http://sodipodi.sourceforge.net/DTD/sodipodi-0.dtd"
   xmlns:inkscape="http://www.inkscape.org/namespaces/inkscape"
   sodipodi:docname="feed-service-fever.svg"
   inkscape:version="1.0beta2 (unknown)"
   id="svg8"
   version="1.1"
   viewBox="0 0 16.933333 16.933333"
   height="64"
   width="64">
  <defs
     id="defs2" />
  <sodipodi:namedview
     inkscape:window-maximized="1"
     inkscape:window-y="0"
     inkscape:window-x="0"
     inkscape:window-height="995"
     inkscape:window-width="1920"
     units="px"
     showgrid="false"
     inkscape:document-rotation="0"
     inkscape:current-layer="layer1"
     inkscape:document-units="px"
     inkscape:cy="52.536286"
     inkscape:cx="58.456261"
     inkscape:zoom="5.6"
     inkscape:pageshadow="2"
     inkscape:pageopacity="0.0"
     borderopacity="1.0"
     bordercolor="#666666"
     pagecolor="#ffffff"
     id="base" />
  <metadata
     id="metadata5">
    <rdf:RDF>
      <cc:Work
         rdf:about="">
        <dc:format>image/svg+xml</dc:format>
        <dc:type
           rdf:resource="http://purl.org/dc/dcmitype/StillImage" />
        <dc:title></dc:title>
      </cc:Work>
    </rdf:RDF>
  </metadata>
  <g
     id="layer1"
     inkscape:groupmode="layer"
     inkscape:label="Layer 1">
    <path
       inkscape:connector-curvature="0"
       d="M 8.4827401,0.79374998 4.4266496,4.797698 c -1.395663,1.281377 -2.309982,3.028244 -2.309983,4.9406951 0,3.5352719 2.8398023,6.4011789 6.3428831,6.4011899 3.5030803,-1.1e-5 6.3571163,-2.85842 6.3571163,-6.3936919 C 14.816651,7.804108 13.976424,6.113724 12.442265,4.752403 Z M 8.4745501,6.584536 a 3.1072016,3.1311658 0 0 1 0.0017,0 A 3.1072016,3.1311658 0 0 1 11.583428,9.7157151 3.1072016,3.1311658 0 0 1 8.4762501,12.846893 3.1072016,3.1311658 0 0 1 5.3690741,9.7157151 3.1072016,3.1311658 0 0 1 8.474594,6.584536 Z"
       style="opacity:0.999;fill:#be2828;fill-opacity:1;stroke:none;stroke-width:0.0443443;stroke-opacity:1"
       id="path867" />
  </g>
</svg>
